{
    "resultflag": 1,
    "message": "Success message",
    "list": [
        {
            "app_no": "#153541",
            "id": 1,
            "status": "Pending",
            "desc":"Andheri - Kurla Rd,Jarimari,Saki Naka,Mumbai,Maharashtra 400072",
            "date":"09 February 2021",
            "title":"125 Acres Residential Land at Andheri - Kurla Rd, Mumbai",
            "fees":"23650"
        },
        {
            "app_no": "#153541",
            "id": 1,
            "status": "Cancel",
            "desc":"Andheri - Kurla Rd,Jarimari,Saki Naka,Mumbai,Maharashtra 400072",
            "date":"09 February 2021",
            "title":"125 Acres Residential Land at Andheri - Kurla Rd, Mumbai",
            "fees":"23650"
        },
        {
            "app_no": "#153541",
            "id": 1,
            "status": "Hold",
            "desc":"Andheri - Kurla Rd,Jarimari,Saki Naka,Mumbai,Maharashtra 400072",
            "date":"09 February 2021",
            "title":"125 Acres Residential Land at Andheri - Kurla Rd, Mumbai",
            "fees":"23650"
        },
        {
            "app_no": "#153541",
            "id": 1,
            "status": "Pending",
            "desc":"Andheri - Kurla Rd,Jarimari,Saki Naka,Mumbai,Maharashtra 400072",
            "date":"09 February 2021",
            "title":"125 Acres Residential Land at Andheri - Kurla Rd, Mumbai",
            "fees":"23650"
        },
        {
            "app_no": "#153541",
            "id": 1,
            "status": "Cancel",
            "desc":"Andheri - Kurla Rd,Jarimari,Saki Naka,Mumbai,Maharashtra 400072",
            "date":"09 February 2021",
            "title":"125 Acres Residential Land at Andheri - Kurla Rd, Mumbai",
            "fees":"23650"
        },
        {
            "app_no": "#153541",
            "id": 1,
            "status": "Hold",
            "desc":"Andheri - Kurla Rd,Jarimari,Saki Naka,Mumbai,Maharashtra 400072",
            "date":"09 February 2021",
            "title":"125 Acres Residential Land at Andheri - Kurla Rd, Mumbai",
            "fees":"23650"
        },
        {
            "app_no": "#153541",
            "id": 1,
            "status": "Pending",
            "desc":"Andheri - Kurla Rd,Jarimari,Saki Naka,Mumbai,Maharashtra 400072",
            "date":"09 February 2021",
            "title":"125 Acres Residential Land at Andheri - Kurla Rd, Mumbai",
            "fees":"23650"
        },
        {
            "app_no": "#153541",
            "id": 1,
            "status": "Approved",
            "desc":"Andheri - Kurla Rd,Jarimari,Saki Naka,Mumbai,Maharashtra 400072",
            "date":"09 February 2021",
            "title":"125 Acres Residential Land at Andheri - Kurla Rd, Mumbai",
            "fees":"23650"
        }
    ],
    "programmeHighlight":
    [
        {
            "image_url": "ic_filmimg_shooting",
            "lightGradient": "#6D5CCB",
            "darkGradient": "#2B53CB",
            "title": "Inaugration of PBD Convention by Hon'ble Prime Minister",
            "desc" :"Lorem Ipsum is simply dummy text of the printing and typesetting industry.",
            "date":"1610172622",
            "id": "1"
        },
        {
            "image_url": "ic_filmimg_shooting",
            "lightGradient": "#6D5CCB",
            "darkGradient": "#2B53CB",
            "title": "Valedictory Sessions & PBS Awards by Hon'ble President",
            "desc" :"Event will be held in designated places in New Delhi with Limited Audiance",
            "date":"1610172622",
            "id": "1"
        }
    ],
    "options": [
        {
            "thumbnail": "ico_total_registration",
            "lightGradient": "#C978E7",
            "darkGradient": "#ED4587",
            "id": 1,
            "title": "Total Registrations",
            "count":"552"
        },
        {
            "thumbnail": "ico_male_registration",
            "lightGradient": "#EF716D",
            "darkGradient": "#F3AA5E",
            "id": 2,
            "title": "Male Registrations",
            "count":"250"
        },
        {
            "thumbnail": "ico_female_registration",
            "lightGradient": "#7854B6",
            "darkGradient": "#6480E5",
            "id": 3,
            "title": "Female Registrations",
            "count":"252"
        },
        {
            "thumbnail": "ico_team_registration",
            "lightGradient": "#495BDA",
            "darkGradient": "#46A1C4",
            "id": 1,
            "title": "Team Registrations",
            "count":"149"
        },
        {
            "thumbnail": "ico_male_team",
            "lightGradient": "#2A677E",
            "darkGradient": "#78D9B0",
            "id": 2,
            "title": "Male Teams",
            "count":"80"
        },
        {
            "thumbnail": "ico_female_team",
            "lightGradient": "#9E45D4",
            "darkGradient": "#CB8FF2",
            "id": 3,
            "title": "Female Teams",
            "count":"69"
        }
    ],
    "live": {
        "id" :"1",
        "post_date" :"27 Aug, 2021",
        "category" :"Gujarat",
        "title" :"Gujarat: There are no cases of land encroachment on govt land",
        "userImg" :"img_middle"
    },
    "latestNews": [
    {
        "id" :"1",
        "date" :"27 Aug, 2021",
        "category" :"Gujarat",
        "title" :"Ahmedabad City girls shone with six medals in the recently held Khel-Mahakumbh",
        "image_url" :"img_list1",
        "desc":"Lorem ipsum dolor sit amet, consectetur adipisicing elit, sed do"
    },
    {
        "id" :"1",
        "date" :"27 Aug, 2021",
        "category" :"Gujarat",
        "title" :"Ahmedabad City girls shone with six medals in the recently held Khel-Mahakumbh",
        "image_url" :"img_list2",
        "desc":"Lorem ipsum dolor sit amet, consectetur adipisicing elit, sed do"
    }
    ],
    "optionsVIP": [
        {
            "thumbnail": "option1",
            "id": 1,
            "title": "Shri Ram Nath Kovind",
            "position":"H'onalble President of India"
        },
        {
            "thumbnail": "option2",
            "id": 2,
            "title": "Shri Narendra Modi",
            "position":"H'onalble Prime Minister of India"
        },
        {
            "thumbnail": "option3",
            "id": 3,
            "title": "Subramanyam Jaishankar",
            "position":"Minister of external Affairs"
        },
        {
            "thumbnail": "option4",
            "id": 1,
            "title": "K.Chandrashekar Rao",
            "position":"Chief Minister of Telangana"
        },
        {
            "thumbnail": "option5",
            "id": 1,
            "title": "Gen. (Dr) V.K. Singh(Retd.)",
            "position":"Ministry of State for External Affairs"
        }
    ],
    "description": "Pravasi Bharatiya Divas (PBD) is celebrated once in two years to strengthen the engagement of the overseas Indian community with the Government, reconnect them with their roots and celebrate their achievements and contributions.",
    "NewIndianShow" : [
        {
        "id" :"1",
        "post_date" :"27 Aug, 2021",
        "title" :"Gujarat",
        "desc" :"Gujarat: There are no cases of land encroachment on govt land",
        "userImg" :"img_list5"
    },
    {
        "id" :"1",
        "post_date" :"27 Aug, 2021",
        "title" :"Gujarat",
        "desc" :"Gujarat: There are no cases of land encroachment on govt land",
        "userImg" :"img_list5"
    },
    {
    "id" :"1",
    "post_date" :"27 Aug, 2021",
    "title" :"Gujarat",
    "desc" :"Gujarat: There are no cases of land encroachment on govt land",
    "userImg" :"img_list5"
    }
    ],

    "Featured":[
        {
            "id" : "1",
            "category":"Global",
            "title" : "New Mexico now has a Dr Jonathan Iralu Day",
            "date":"25 Aug 2021",
            "thumbimgurl":"img-video1",
            "videourl":""
        },
        {
            "id" : "1",
            "category":"Defence",
            "title" : "From doctor who partied in London to",
            "date":"25 Aug 2021",
            "thumbimgurl":"img-video2",
            "videourl":""
        },
        {
            "id" : "1",
            "category":"Global",
            "title" : "New Mexico now has a Dr Jonathan Iralu Day",
            "date":"25 Aug 2021",
            "thumbimgurl":"img-video1",
            "videourl":""
        },
        {
            "id" : "1",
            "category":"Defence",
            "title" : "From doctor who partied in London to",
            "date":"25 Aug 2021",
            "thumbimgurl":"img-video1",
            "videourl":""
        }
    ],
    "InDepth":
        {
            "id" : "1",
            "category":"National",
            "title" : "India and Bangladesh to resume flights under air bubble arrangement,check",
            "date":"25 Aug 2021",
            "thumbimgurl":"img_middle3",
            "videourl":""
        },
    "BottomCategory":[
            {
                "id" : "1",
                "title" : "Investigation",
                "img":"ic_investigation_1447",
                "bgColorHex":"#18B25D",
                "darkgradient":"#2C2C2F"
               
            },
            {
                "id" : "2",
                "title" : "Defence",
                "img":"ic_defence_1451",
                "bgColorHex":"#7234CF",
                "darkgradient":"#2C2C2F"
            },
            
            {
                "id" : "1",
                "title" : "Opinion",
                "img":"ic_opinion",
                "bgColorHex":"#2352CB",
                "darkgradient":"#2C2C2F"
            }
        ],
    
    "commentList":[
        {
            
            "id" :"1",
            "post_date" :"13 Sep, 2021",
            "title" :"Gunjan",
            "desc" :"Gujarat: There are no cases of land encroachment on govt land",
            "userImg" :"comment_placeholder",
            "dislikes" :"10",
            "likes" :"5",
            "replies": [
                {
                "id" :"1",
                "post_date" :"13 Sep, 2021",
                "title" :"Gunjan",
                "desc" :"Gujarat: There are no cases of land encroachment on govt land",
                "userImg" :"comment_placeholder",
                "dislikes" :"10",
                "likes" :"5"
                },
                {
                "id" :"1",
                "post_date" :"14 Sep, 2021",
                "title" :"Gunjan",
                "desc" :"Gujarat: There are no cases of land encroachment on govt land",
                "userImg" :"comment_placeholder",
                "dislikes" :"10",
                "likes" :"5"
                }
            ]
        },
        {
            
            "id" :"1",
            "post_date" :"13 Sep, 2021",
            "title" :"Gunjan",
            "desc" :"Very Nice Reply",
            "userImg" :"comment_placeholder",
            "dislikes" :"5",
            "likes" :"10",
            "replies": [
                {
                "id" :"1",
                "post_date" :"13 Sep, 2021",
                "title" :"Gunjan",
                "desc" :"Gujarat: There are no cases of land encroachment on govt land",
                "userImg" :"comment_placeholder",
                "dislikes" :"10",
                "likes" :"5"
                },
                {
                "id" :"1",
                "post_date" :"14 Sep, 2021",
                "title" :"Gunjan",
                "desc" :"Gujarat: There are no cases of land encroachment on govt land",
                "userImg" :"comment_placeholder",
                "dislikes" :"10",
                "likes" :"5"
                },
                {
                "id" :"1",
                "post_date" :"14 Sep, 2021",
                "title" :"Gunjan",
                "desc" :"Gujarat: There are no cases of land encroachment on govt land",
                "userImg" :"comment_placeholder",
                "dislikes" :"10",
                "likes" :"5"
                }
            ]
        },
        {
            
            "id" :"1",
            "post_date" :"13 Sep, 2021",
            "title" :"Gunjan",
            "desc" :"Gujarat: There are no cases of land encroachment on govt land",
            "userImg" :"comment_placeholder",
            "dislikes" :"10",
            "likes" :"5",
            "replies": []
        },
        {
            
            "id" :"1",
            "post_date" :"13 Sep, 2021",
            "title" :"Gunjan",
            "desc" :"Gujarat: There are no cases of land encroachment on govt land",
            "userImg" :"comment_placeholder",
            "dislikes" :"10",
            "likes" :"5"
        },
        {
            
            "id" :"1",
            "post_date" :"13 Sep, 2021",
            "title" :"Gunjan",
            "desc" :"Gujarat: There are no cases of land encroachment on govt land",
            "userImg" :"comment_placeholder",
            "dislikes" :"10",
            "likes" :"5"
        },
        {
            
            "id" :"1",
            "post_date" :"13 Sep, 2021",
            "title" :"Gunjan",
            "desc" :"Gujarat: There are no cases of land encroachment on govt land",
            "userImg" :"comment_placeholder",
            "dislikes" :"10",
            "likes" :"5"
        },
        {
            
            "id" :"1",
            "post_date" :"13 Sep, 2021",
            "title" :"Gunjan",
            "desc" :"Gujarat: There are no cases of land encroachment on govt land",
            "userImg" :"comment_placeholder",
            "dislikes" :"10",
            "likes" :"5"
        },
        {
            
            "id" :"1",
            "post_date" :"13 Sep, 2021",
            "title" :"Gunjan",
            "desc" :"Gujarat: There are no cases of land encroachment on govt land",
            "userImg" :"comment_placeholder",
            "dislikes" :"10",
            "likes" :"5"
        },
        {
            
            "id" :"1",
            "post_date" :"13 Sep, 2021",
            "title" :"Gunjan",
            "desc" :"Gujarat: There are no cases of land encroachment on govt land",
            "userImg" :"comment_placeholder",
            "dislikes" :"10",
            "likes" :"5"
        },
        {
            
            "id" :"1",
            "post_date" :"13 Sep, 2021",
            "title" :"Gunjan",
            "desc" :"Gujarat: There are no cases of land encroachment on govt land",
            "userImg" :"comment_placeholder",
            "dislikes" :"10",
            "likes" :"5"
        },
        {
            
            "id" :"1",
            "post_date" :"13 Sep, 2021",
            "title" :"Gunjan",
            "desc" :"Gujarat: There are no cases of land encroachment on govt land",
            "userImg" :"ic_user",
            "dislikes" :"10",
            "likes" :"5"
        }
    ],
    "Add1":
        {
            "id" : "1",
            "title" : "India and Bangladesh to resume flights under air bubble arrangement,check",
            "height":"200",
            "thumbimgurl":"add_banner",
            "width":"1400"
        },
        "previousEvents": [
            {
                "image_url": "archery",
                "id": 1,
                "image_name": "img_top",
                "desc1":"Role of India Diaspora \n in Building New India",
                "desc":"Child Protection is about protecting children from or against any percived",
                "date":"10, December 2020 - 20, December 2020",
                "title":"Reports:US officials naively gave Taliban 'kill list'",
                "category":"Counter Terrorism",
                "title1":"Archery"
            },
            {
                "image_url": "athletics",
                "id": 2,
                "image_name": "banner_RedFort",
                "desc1":"Role of India Diaspora \n in Building New India",
                "desc":"Child Protection is about protecting children from or against any percived",
                "date":"10, December 2020 - 20, December 2020",
                "title":"Delhi",
                "category":"Counter Terrorism",
                "title1":"Atletics"
            },
            {
                "image_url": "badminton",
                "id": 3,
                "image_name": "banner_Virupaksha",
                "desc1":"Role of India Diaspora \n in Building New India",
                "desc":"Child Protection is about protecting children from or against any percived",
                "date":"10, December 2020 - 20, December 2020",
                "title":"Karnataka",
                "category":"Counter Terrorism",
                "title1":"Badminton"
            },
            {
                "image_url": "athletics",
                "id": 4,
                "image_name": "banner_Ajanta_Caves",
                "desc1":"Role of India Diaspora \n in Building New India",
                "desc":"Child Protection is about protecting children from or against any percived",
                "date":"10, December 2020 - 20, December 2020",
                "title":"Maharashtra",
                "category":"Counter Terrorism",
                "title1":"Atletics"
            },
            {
                "image_url": "badminton",
                "id": 5,
                "image_name": "banner_Fatehpur_Sikri",
                "desc1":"Role of India Diaspora \n in Building New India",
                "desc":"Child Protection is about protecting children from or against any percived",
                "date":"10, December 2020 - 20, December 2020",
                "title":"Agra (U.P)",
                "category":"Counter Terrorism",
                "title1":"Badminton"
            }
        ],
        "warrant": [
            {
                "app_no": "#153541",
                "id": 1,
                "notice_type": "warrant",
                "template_type":"test type",
                "template":"warrant",
                "land_owner":"Self",
                "status":"Active",
                "action":""
            },
            {
                "app_no": "#153541",
                "id": 1,
                "notice_type": "warrant",
                "template_type":"test type",
                "template":"warrant",
                "land_owner":"Self",
                "status":"Active",
                "action":""
            },
            {
                "app_no": "#153541",
                "id": 1,
                "notice_type": "warrant",
                "template_type":"test type",
                "template":"warrant",
                "land_owner":"Self",
                "status":"Active",
                "action":""
            },
            {
                "app_no": "#153541",
                "id": 1,
                "notice_type": "warrant",
                "template_type":"test type",
                "template":"warrant",
                "land_owner":"Self",
                "status":"Active",
                "action":""
            },
            {
                "app_no": "#153541",
                "id": 1,
                "notice_type": "warrant",
                "template_type":"test type",
                "template":"warrant",
                "land_owner":"Self",
                "status":"Active",
                "action":""
            },
            {
                "app_no": "#153541",
                "id": 1,
                "notice_type": "warrant",
                "template_type":"test type",
                "template":"warrant",
                "land_owner":"Self",
                "status":"Active",
                "action":""
            },
            {
                "app_no": "#153541",
                "id": 1,
                "notice_type": "warrant",
                "template_type":"test type",
                "template":"warrant",
                "land_owner":"Self",
                "status":"Active",
                "action":""
            },
            {
                "app_no": "#153541",
                "id": 1,
                "notice_type": "warrant",
                "template_type":"test type",
                "template":"warrant",
                "land_owner":"Self",
                "status":"Active",
                "action":""
            }
        ]
        
        
}
