{
  "images" : [
    {
      "filename" : "iconfinder_right_arrow_next_forward_navigation_3994400.png",
      "idiom" : "universal"
    }
  ],
  "info" : {
    "author" : "xcode",
    "version" : 1
  }
}
